{
  "yelp_key": "YOUR_YELP_CONSUMER_KEY",
  "yelp_secret": "YOUR_YELP_CONSUMER_SECRET",
  "yelp_token": "YOUR_YELP_TOKEN",
  "yelp_token_secret": "YOUR_YELP_TOKEN_SECRET",
  "slack_token": "YOUR_CUSTOM_SLACK_COMMAND_TOKEN"
}